4.7 Advanced: An in-depth look into mlr3pipelines | mlr3book.utf8
…
The most basic unit of functionality within mlr3pipelines is the PipeOp, short for “pipeline operator”, which represents a trans-formative operation on input (for example a training dataset) leading to output.
It can therefore be seen as a generalized notion of a function, with a certain twist: PipeOps behave differently during a “training phase” and a “prediction phase”.
The training phase will typically generate a certain model of the data that is saved as internal state.
The prediction phase will then operate on the input data depending on the trained model.

An example of this behavior is the principal component analysis operation (“PipeOpPCA”):
During training, it will transform incoming data by rotating it in a way that leads to uncorrelated features ordered by their contribution to total variance.
It will also save the rotation matrix to be used during for new data.
This makes it possible to perform “prediction” with single rows of new data, where a row’s scores on each of the principal components (the components of the training data!) is computed.

po = mlr_pipeops$get("pca")
po$train(list(task))[[1]]$data()

## # A tibble: 150 x 5
##    Species   PC1     PC2     PC3      PC4
##    <fct>   <dbl>   <dbl>   <dbl>    <dbl>
##  1 setosa  -2.68  0.319  -0.0279 -0.00226
##  2 setosa  -2.71 -0.177  -0.210  -0.0990 
##  3 setosa  -2.89 -0.145   0.0179 -0.0200 
##  4 setosa  -2.75 -0.318   0.0316  0.0756 
##  5 setosa  -2.73  0.327   0.0901  0.0613 
##  6 setosa  -2.28  0.741   0.169   0.0242 
##  7 setosa  -2.82 -0.0895  0.258   0.0481 
##  8 setosa  -2.63  0.163  -0.0219  0.0453 
##  9 setosa  -2.89 -0.578   0.0208  0.0267 
## 10 setosa  -2.67 -0.114  -0.198   0.0563 
## # … with 140 more rows
…
The preprocessing of each instance of prediction data should not depend on the remaining prediction dataset.
A prediction on a single instance of new data should give the same result as prediction performed on a whole dataset.

If preprocessing is performed on a task before resampling is done, information about the test set can leak into the training set.
Resampling should evaluate the generalization performance of the entire machine learning method, therefore the behavior of this entire method must only depend only on the content of the training split during resampling.

4.7.2.2 Where to Get PipeOps

Each PipeOp is an instance of an “R6” class, many of which are provided by the mlr3pipelines package itself.
They can be constructed explicitly (“PipeOpPCA$new()”) or retrieved from the mlr_pipelines collection: mlr_pipeops$get("pca").
The entire list of available PipeOps, and some meta-information, can be retrieved using as.data.table():

as.data.table(mlr_pipeops)[, c("key", "input.num", "output.num")]

## # A tibble: 42 x 3
##    key             input.num output.num
##    <chr>               <int>      <int>
##  1 boxcox                  1          1
##  2 branch                  1         NA
##  3 chunk                   1         NA
##  4 classbalancing          1          1
##  5 classifavg             NA          1
##  6 classweights            1          1
##  7 colapply                1          1
##  8 collapsefactors         1          1
##  9 copy                    1         NA
## 10 encode                  1          1
## # … with 32 more rows
…
4.7.3.1 Input Channels

Just like functions, PipeOps can take multiple inputs.
These multiple inputs are always given as elements in the input list.
For example, there is a PipeOpFeatureUnion that combines multiple tasks with different features and “cbind()s” them together, creating one combined task.
When two halves of the iris task are given, for example, it recreates the original task:

iris_first_half = task$clone()$select(c("Petal.Length", "Petal.Width"))
iris_second_half = task$clone()$select(c("Sepal.Length", "Sepal.Width"))

pofu = mlr_pipeops$get("featureunion", innum = 2)

pofu$train(list(iris_first_half, iris_second_half))[[1]]$data()

## # A tibble: 150 x 5
##    Species Petal.Length Petal.Width Sepal.Length Sepal.Width
##    <fct>          <dbl>       <dbl>        <dbl>       <dbl>
##  1 setosa           1.4         0.2          5.1         3.5
##  2 setosa           1.4         0.2          4.9         3  
##  3 setosa           1.3         0.2          4.7         3.2
##  4 setosa           1.5         0.2          4.6         3.1
##  5 setosa           1.4         0.2          5           3.6
##  6 setosa           1.7         0.4          5.4         3.9
##  7 setosa           1.4         0.3          4.6         3.4
##  8 setosa           1.5         0.2          5           3.4
##  9 setosa           1.4         0.2          4.4         2.9
## 10 setosa           1.5         0.1          4.9         3.1
## # … with 140 more rows
…
gr$
  add_edge("copy", "scale", src_channel = 1)$        ## designating channel by index
  add_edge("copy", "pca", src_channel = "output2")$  ## designating channel by name
  add_edge("scale", "featureunion", dst_channel = 1)$
  add_edge("pca", "featureunion", dst_channel = 2)

gr$plot(html = TRUE)

gr$train(iris_first_half)[[1]]$data()

## # A tibble: 150 x 5
##    Species Petal.Length Petal.Width   PC1      PC2
##    <fct>          <dbl>       <dbl> <dbl>    <dbl>
##  1 setosa         -1.34       -1.31 -2.56 -0.00692
##  2 setosa         -1.34       -1.31 -2.56 -0.00692
##  3 setosa         -1.39       -1.31 -2.65  0.0318 
##  4 setosa         -1.28       -1.31 -2.47 -0.0457 
##  5 setosa         -1.34       -1.31 -2.56 -0.00692
##  6 setosa         -1.17       -1.05 -2.21  0.0611 
##  7 setosa         -1.34       -1.18 -2.52  0.0853 
##  8 setosa         -1.28       -1.31 -2.47 -0.0457 
##  9 setosa         -1.34       -1.31 -2.56 -0.00692
## 10 setosa         -1.28       -1.44 -2.51 -0.138  
## # … with 140 more rows
…
