4.1 The Building Blocks: PipeOps | mlr3book.utf8
…
4.1 The Building Blocks: PipeOps

The building blocks of mlr3pipelines are PipeOp-objects (PO).
They can be constructed directly using PipeOp<NAME>$new(), but the recommended way is to retrieve them from the mlr_pipeops dictionary:

library("mlr3pipelines")
as.data.table(mlr_pipeops)

## # A tibble: 42 x 8
##    key   packages input.num output.num input.type.train input.type.pred…
##    <chr> <list>       <int>      <int> <list>           <list>          
##  1 boxc… <chr [1…         1          1 <chr [1]>        <chr [1]>       
##  2 bran… <chr [0…         1         NA <chr [1]>        <chr [1]>       
##  3 chunk <chr [0…         1         NA <chr [1]>        <chr [1]>       
##  4 clas… <chr [0…         1          1 <chr [1]>        <chr [1]>       
##  5 clas… <chr [1…        NA          1 <chr [1]>        <chr [1]>       
##  6 clas… <chr [0…         1          1 <chr [1]>        <chr [1]>       
##  7 cola… <chr [0…         1          1 <chr [1]>        <chr [1]>       
##  8 coll… <chr [0…         1          1 <chr [1]>        <chr [1]>       
##  9 copy  <chr [0…         1         NA <chr [1]>        <chr [1]>       
## 10 enco… <chr [1…         1          1 <chr [1]>        <chr [1]>       
## # … with 32 more rows, and 2 more variables: output.type.train <list>,
## #   output.type.predict <list>
…
